<?xml version="1.0" encoding="UTF-8" standalone="no"?>
<!-- Created with Inkscape (http://www.inkscape.org/) -->

<svg
   version="1.1"
   id="svg25"
   xml:space="preserve"
   width="151.18111"
   height="151.18111"
   viewBox="0 0 151.18111 151.18111"
   sodipodi:docname="icon-instagram.svg"
   inkscape:version="1.1.1 (3bf5ae0d25, 2021-09-20)"
   xmlns:inkscape="http://www.inkscape.org/namespaces/inkscape"
   xmlns:sodipodi="http://sodipodi.sourceforge.net/DTD/sodipodi-0.dtd"
   xmlns="http://www.w3.org/2000/svg"
   xmlns:svg="http://www.w3.org/2000/svg"><defs
     id="defs29"><radialGradient
       fx="0"
       fy="0"
       cx="0"
       cy="0"
       r="1"
       gradientUnits="userSpaceOnUse"
       gradientTransform="matrix(3768.8254,0,0,3768.8254,390.39148,263.30591)"
       spreadMethod="pad"
       id="radialGradient53"><stop
         style="stop-opacity:1;stop-color:#fa8f21"
         offset="0"
         id="stop45" /><stop
         style="stop-opacity:1;stop-color:#fa8f21"
         offset="0.09"
         id="stop47" /><stop
         style="stop-opacity:1;stop-color:#d82d7e"
         offset="0.78"
         id="stop49" /><stop
         style="stop-opacity:1;stop-color:#d82d7e"
         offset="1"
         id="stop51" /></radialGradient><clipPath
       clipPathUnits="userSpaceOnUse"
       id="clipPath63"><path
         d="m 950.909,3156.224 c -176.535,-8.028 -272.433,-37.405 -336.219,-62.285 v 0 c -84.606,-32.73 -144.862,-72.078 -208.207,-135.422 v 0 C 343.228,2894.996 303.969,2834.739 271.06,2750.222 v 0 c -24.701,-63.962 -54.256,-159.685 -62.284,-336.22 v 0 c -8.558,-191.003 -10.5,-248.171 -10.5,-731.635 v 0 c 0,-483.463 1.765,-540.72 10.587,-731.547 v 0 c 8.029,-176.534 37.407,-272.432 62.286,-336.218 v 0 c 32.731,-84.518 71.99,-144.774 135.422,-208.119 v 0 C 470.004,343.138 530.261,303.968 614.778,271.06 v 0 c 63.786,-24.878 159.685,-54.256 336.219,-62.284 v 0 c 190.828,-8.823 248.172,-10.5 731.459,-10.5 v 0 c 483.463,0 540.809,1.765 731.635,10.5 v 0 c 176.535,8.028 272.433,37.406 336.218,62.284 v 0 c 84.519,32.908 144.864,72.079 208.208,135.423 v 0 c 63.345,63.344 102.515,123.601 135.422,208.119 v 0 c 24.702,63.786 54.257,159.684 62.286,336.218 v 0 c 8.734,191.005 10.499,248.349 10.499,731.636 v 0 c 0,483.463 -1.765,540.632 -10.499,731.636 v 0 c -8.029,176.534 -37.406,272.432 -62.286,336.217 v 0 c -32.907,84.518 -71.99,144.863 -135.422,208.208 v 0 c -63.433,63.344 -123.689,102.692 -208.208,135.422 v 0 c -63.96,24.702 -159.683,54.257 -336.218,62.285 v 0 c -191.003,8.558 -248.172,10.5 -731.635,10.5 v 0 c -483.287,0 -540.631,-1.765 -731.547,-10.5"
         id="path61" /></clipPath><radialGradient
       fx="0"
       fy="0"
       cx="0"
       cy="0"
       r="1"
       gradientUnits="userSpaceOnUse"
       gradientTransform="matrix(3316.6023,0,0,3316.6023,2254.416,358.62231)"
       spreadMethod="pad"
       id="radialGradient79"><stop
         style="stop-opacity:0;stop-color:#ffffff"
         offset="0"
         id="stop73" /><stop
         style="stop-opacity:0;stop-color:#ffffff"
         offset="0.64"
         id="stop75" /><stop
         style="stop-opacity:1;stop-color:#ffffff"
         offset="1"
         id="stop77" /></radialGradient><mask
       maskUnits="userSpaceOnUse"
       x="0"
       y="0"
       width="1"
       height="1"
       id="mask81"><g
         id="g91"><g
           id="g89"><g
             id="g87"><g
               id="g85"><path
                 d="M -32768,32767 H 32767 V -32768 H -32768 Z"
                 style="fill:url(#radialGradient79);stroke:none"
                 id="path83" /></g></g></g></g></mask><radialGradient
       fx="0"
       fy="0"
       cx="0"
       cy="0"
       r="1"
       gradientUnits="userSpaceOnUse"
       gradientTransform="matrix(3316.6023,0,0,3316.6023,2254.416,358.62231)"
       spreadMethod="pad"
       id="radialGradient103"><stop
         style="stop-opacity:1;stop-color:#8c3aaa"
         offset="0"
         id="stop97" /><stop
         style="stop-opacity:1;stop-color:#8c3aaa"
         offset="0.64"
         id="stop99" /><stop
         style="stop-opacity:1;stop-color:#8c3aaa"
         offset="1"
         id="stop101" /></radialGradient><clipPath
       clipPathUnits="userSpaceOnUse"
       id="clipPath113"><path
         d="M 0,3365 H 3365 V 0 H 0 Z"
         id="path111" /></clipPath></defs><sodipodi:namedview
     id="namedview27"
     pagecolor="#505050"
     bordercolor="#eeeeee"
     borderopacity="1"
     inkscape:pageshadow="0"
     inkscape:pageopacity="0"
     inkscape:pagecheckerboard="0"
     showgrid="false"
     fit-margin-top="0"
     fit-margin-left="0"
     fit-margin-right="0"
     fit-margin-bottom="0"
     inkscape:zoom="2.8279347"
     inkscape:cx="54.810318"
     inkscape:cy="74.082332"
     inkscape:window-width="1920"
     inkscape:window-height="1050"
     inkscape:window-x="0"
     inkscape:window-y="0"
     inkscape:window-maximized="1"
     inkscape:current-layer="g31" /><g
     id="g31"
     inkscape:groupmode="layer"
     inkscape:label="Instagram Icon"
     transform="matrix(1.3333333,0,0,-1.3333333,-264.36799,4222.2985)"><g
       id="g215"
       transform="matrix(0.03819701,0,0,0.03819701,190.70245,3045.7646)"><g
         id="g33"><g
           id="g35"><g
             id="g41"><g
               id="g43"><path
                 d="m 950.909,3156.224 c -176.535,-8.028 -272.433,-37.405 -336.219,-62.285 v 0 c -84.606,-32.73 -144.862,-72.078 -208.207,-135.422 v 0 C 343.228,2894.996 303.969,2834.739 271.06,2750.222 v 0 c -24.701,-63.962 -54.256,-159.685 -62.284,-336.22 v 0 c -8.558,-191.003 -10.5,-248.171 -10.5,-731.635 v 0 c 0,-483.463 1.765,-540.72 10.587,-731.547 v 0 c 8.029,-176.534 37.407,-272.432 62.286,-336.218 v 0 c 32.731,-84.518 71.99,-144.774 135.422,-208.119 v 0 C 470.004,343.138 530.261,303.968 614.778,271.06 v 0 c 63.786,-24.878 159.685,-54.256 336.219,-62.284 v 0 c 190.828,-8.823 248.172,-10.5 731.459,-10.5 v 0 c 483.463,0 540.809,1.765 731.635,10.5 v 0 c 176.535,8.028 272.433,37.406 336.218,62.284 v 0 c 84.519,32.908 144.864,72.079 208.208,135.423 v 0 c 63.345,63.344 102.515,123.601 135.422,208.119 v 0 c 24.702,63.786 54.257,159.684 62.286,336.218 v 0 c 8.734,191.005 10.499,248.349 10.499,731.636 v 0 c 0,483.463 -1.765,540.632 -10.499,731.636 v 0 c -8.029,176.534 -37.406,272.432 -62.286,336.217 v 0 c -32.907,84.518 -71.99,144.863 -135.422,208.208 v 0 c -63.433,63.344 -123.689,102.692 -208.208,135.422 v 0 c -63.96,24.702 -159.683,54.257 -336.218,62.285 v 0 c -191.003,8.558 -248.172,10.5 -731.635,10.5 v 0 c -483.287,0 -540.631,-1.765 -731.547,-10.5"
                 style="fill:url(#radialGradient53);stroke:none"
                 id="path55" /></g></g></g></g><g
         id="g57"><g
           id="g59"
           clip-path="url(#clipPath63)"><g
             id="g65"><g
               id="g67" /><g
               id="g93"
               mask="url(#mask81)"><g
                 id="g95"><path
                   d="m 950.909,3156.224 c -176.535,-8.028 -272.433,-37.405 -336.219,-62.285 v 0 c -84.606,-32.73 -144.862,-72.078 -208.207,-135.422 v 0 C 343.228,2894.996 303.969,2834.739 271.06,2750.222 v 0 c -24.701,-63.962 -54.256,-159.685 -62.284,-336.22 v 0 c -8.558,-191.003 -10.5,-248.171 -10.5,-731.635 v 0 c 0,-483.463 1.765,-540.72 10.587,-731.547 v 0 c 8.029,-176.534 37.407,-272.432 62.286,-336.218 v 0 c 32.731,-84.518 71.99,-144.774 135.422,-208.119 v 0 C 470.004,343.138 530.261,303.968 614.778,271.06 v 0 c 63.786,-24.878 159.685,-54.256 336.219,-62.284 v 0 c 190.828,-8.823 248.172,-10.5 731.459,-10.5 v 0 c 483.463,0 540.809,1.765 731.635,10.5 v 0 c 176.535,8.028 272.433,37.406 336.218,62.284 v 0 c 84.519,32.908 144.864,72.079 208.208,135.423 v 0 c 63.345,63.344 102.515,123.601 135.422,208.119 v 0 c 24.702,63.786 54.257,159.684 62.286,336.218 v 0 c 8.734,191.005 10.499,248.349 10.499,731.636 v 0 c 0,483.463 -1.765,540.632 -10.499,731.636 v 0 c -8.029,176.534 -37.406,272.432 -62.286,336.217 v 0 c -32.907,84.518 -71.99,144.863 -135.422,208.208 v 0 c -63.433,63.344 -123.689,102.692 -208.208,135.422 v 0 c -63.96,24.702 -159.683,54.257 -336.218,62.285 v 0 c -191.003,8.558 -248.172,10.5 -731.635,10.5 v 0 c -483.287,0 -540.631,-1.765 -731.547,-10.5"
                   style="fill:url(#radialGradient103);stroke:none"
                   id="path105" /></g></g></g></g></g><g
         id="g107"><g
           id="g109"
           clip-path="url(#clipPath113)"><g
             id="g115"
             transform="translate(1230.9297,2772.2861)"><path
               d="m 0,0 c -117.399,-5.346 -197.62,-23.961 -267.678,-51.222 -72.511,-28.153 -133.976,-65.921 -195.353,-127.2 -61.377,-61.28 -99.048,-122.754 -127.2,-195.353 -27.261,-70.102 -45.876,-150.28 -51.223,-267.679 -5.434,-117.583 -6.678,-155.175 -6.678,-454.657 0,-299.484 1.244,-337.076 6.678,-454.66 5.347,-117.407 23.962,-197.575 51.223,-267.677 28.152,-72.511 65.832,-134.1 127.2,-195.353 61.368,-61.254 122.754,-98.969 195.353,-127.2 70.19,-27.261 150.279,-45.876 267.678,-51.223 117.646,-5.346 155.176,-6.678 454.658,-6.678 299.483,0 337.074,1.244 454.658,6.678 117.408,5.347 197.577,23.962 267.678,51.223 72.511,28.231 133.977,65.92 195.353,127.2 61.377,61.28 98.968,122.842 127.2,195.353 27.262,70.102 45.965,150.279 51.223,267.677 5.346,117.672 6.59,155.176 6.59,454.659 0,299.483 -1.244,337.074 -6.59,454.658 -5.346,117.408 -23.961,197.621 -51.223,267.679 -28.232,72.51 -65.92,133.975 -127.2,195.352 -61.28,61.377 -122.842,99.048 -195.264,127.201 C 1106.893,-23.961 1026.715,-5.258 909.405,0 791.803,5.373 754.229,6.679 454.79,6.679 155.352,6.679 117.689,5.435 0.044,0 m 9.087,-1993.766 c -107.518,4.897 -165.957,22.806 -204.793,37.937 -51.487,20.044 -88.223,43.917 -126.847,82.488 -38.624,38.571 -62.533,75.273 -82.489,126.759 -15.139,38.818 -33.048,97.275 -37.936,204.793 -5.346,116.243 -6.414,151.162 -6.414,445.66 0,294.498 1.156,329.319 6.414,445.659 4.896,107.518 22.938,165.86 37.936,204.793 20.044,51.487 43.918,88.223 82.489,126.847 38.571,38.624 75.272,62.533 126.847,82.489 38.818,15.139 97.275,33.049 204.793,37.936 116.243,5.346 151.161,6.414 445.527,6.414 294.365,0 329.32,-1.138 445.659,-6.432 107.519,-4.896 165.861,-22.938 204.793,-37.936 51.488,-19.956 88.223,-43.917 126.848,-82.489 38.624,-38.57 62.444,-75.36 82.488,-126.847 15.139,-38.818 33.049,-97.275 37.936,-204.792 5.347,-116.341 6.414,-151.162 6.414,-445.66 0,-294.499 -1.067,-329.32 -6.414,-445.66 -4.896,-107.517 -22.894,-165.957 -37.936,-204.792 -20.044,-51.487 -43.918,-88.223 -82.488,-126.759 -38.571,-38.536 -75.36,-62.445 -126.848,-82.489 -38.818,-15.139 -97.275,-33.049 -204.793,-37.936 -116.242,-5.346 -151.161,-6.413 -445.659,-6.413 -294.498,0 -329.32,1.067 -445.527,6.413 M 911.02,-507.389 c -0.03,-73.087 59.195,-132.359 132.281,-132.388 73.087,-0.029 132.358,59.195 132.387,132.282 0.03,73.086 -59.195,132.358 -132.281,132.388 h -0.053 c -73.051,-0.035 -132.272,-59.23 -132.334,-132.282 m -1022.631,-588.722 c 0,-312.752 253.518,-566.27 566.269,-566.27 312.751,0 566.27,253.518 566.27,566.27 0,312.751 -253.519,566.269 -566.27,566.269 -312.751,0 -566.261,-253.501 -566.261,-566.269 m 198.723,0 c 0,203.01 164.527,367.625 367.538,367.625 203.011,0 367.626,-164.615 367.626,-367.625 0,-203.011 -164.615,-367.627 -367.626,-367.627 -203.01,0 -367.538,164.616 -367.538,367.627"
               style="fill:#ffffff;fill-opacity:1;fill-rule:nonzero;stroke:none"
               id="path117" /></g></g></g></g></g></svg>
